{"name":"Rally Karting Chile","picture":{"data":{"is_silhouette":false,"url":"https:\/\/scontent.xx.fbcdn.net\/v\/t1.0-1\/c1.0.50.50\/p50x50\/16114967_699143556877552_1422210618640990627_n.jpg?oh=d4e6430699607b2112dd942e27952afc&oe=5936A882"}},"posts":{"data":[{"name":"Timeline Photos","object_id":"735159143275993","message":"VEN A LLENARTE DE ADRENALINA ANTES DE TOMAR NUEVAMENTE EL LAPIZ Y EL CUADERNO !!!\nDOMINGO DE CAMPEONES EN RALLY KARTING !!! TODAS NUESTRAS PISTAS LISTAS Y DISPUESTAS PARA TI Y TUS AMIGOS !!!\nTE ESPERAMOS !!!!","type":"photo","link":"https:\/\/www.facebook.com\/499708476821062\/photos\/a.499708516821058.1073741826.499708476821062\/735159143275993\/?type=3","id":"499708476821062_735159143275993","created_time":"2017-03-05T14:13:06+0000","full_picture":"https:\/\/scontent.xx.fbcdn.net\/v\/t1.0-9\/s720x720\/17103318_735159143275993_6165314654185340730_n.jpg?oh=023c4437f187c7381c8963f0b0dee4ea&oe=59307BE7","picture":"https:\/\/scontent.xx.fbcdn.net\/v\/t1.0-0\/s130x130\/17103318_735159143275993_6165314654185340730_n.jpg?oh=759488b4f574aa9f91d4cd7af40bb681&oe=596C2518","status_type":"added_photos","likes":{"data":[],"summary":{"total_count":0,"can_like":false,"has_liked":false}},"attachments":{"data":[{"description":"VEN A LLENARTE DE ADRENALINA ANTES DE TOMAR NUEVAMENTE EL LAPIZ Y EL CUADERNO !!!\nDOMINGO DE CAMPEONES EN RALLY KARTING !!! TODAS NUESTRAS PISTAS LISTAS Y DISPUESTAS PARA TI Y TUS AMIGOS !!!\nTE ESPERAMOS !!!!","media":{"image":{"height":285,"src":"https:\/\/scontent.xx.fbcdn.net\/v\/t1.0-9\/s720x720\/17103318_735159143275993_6165314654185340730_n.jpg?oh=023c4437f187c7381c8963f0b0dee4ea&oe=59307BE7","width":720}},"target":{"id":"735159143275993","url":"https:\/\/www.facebook.com\/499708476821062\/photos\/a.499708516821058.1073741826.499708476821062\/735159143275993\/?type=3"},"title":"Timeline Photos","type":"photo","url":"https:\/\/www.facebook.com\/499708476821062\/photos\/a.499708516821058.1073741826.499708476821062\/735159143275993\/?type=3"}]}},{"name":"Timeline Photos","object_id":"732788380179736","message":"ESTE SABADO SORTEAMOS EL PRIMER TICKET ENTRE LOS QUE RESPONDIERON NUESTRA ENCUESTA!!! \nRECUERDA QUE SOLO POR RESPONDERLA YA TIENES UN 30\u0025 EXTRA EN TU PR\u00d3XIMA VISITA... Y LA POSIBILIDAD DE GANAR INCREIBLES PREMIOS EN RALLY KARTING!!! \nTODAS NUESTRAS SEDES ESPERAN TU RESPUESTA!!!","type":"photo","link":"https:\/\/www.facebook.com\/499708476821062\/photos\/a.499708516821058.1073741826.499708476821062\/732788380179736\/?type=3","id":"499708476821062_732788380179736","created_time":"2017-03-02T18:34:49+0000","full_picture":"https:\/\/scontent.xx.fbcdn.net\/v\/t31.0-8\/s720x720\/16991554_732788380179736_5280774968709487983_o.jpg?oh=fd3b50a50a4d49d92d48a9631f87b1fc&oe=5931B02F","picture":"https:\/\/scontent.xx.fbcdn.net\/v\/t1.0-0\/s130x130\/16999175_732788380179736_5280774968709487983_n.jpg?oh=d3ce504c87a41b0e506ee2502e367298&oe=593DE97E","status_type":"added_photos","likes":{"data":[{"id":"436972333300841","name":"Luxo Meza"}],"paging":{"cursors":{"before":"NDM2OTcyMzMzMzAwODQx","after":"NDM2OTcyMzMzMzAwODQx"},"next":"https:\/\/graph.facebook.com\/v2.6\/499708476821062_732788380179736\/likes?access_token=1403531783287112\u00257Caefc31dedc867adfcb816e3b8991d1dd&summary=true&limit=1&after=NDM2OTcyMzMzMzAwODQx"},"summary":{"total_count":24,"can_like":false,"has_liked":false}},"attachments":{"data":[{"description":"ESTE SABADO SORTEAMOS EL PRIMER TICKET ENTRE LOS QUE RESPONDIERON NUESTRA ENCUESTA!!! \nRECUERDA QUE SOLO POR RESPONDERLA YA TIENES UN 30\u0025 EXTRA EN TU PR\u00d3XIMA VISITA... Y LA POSIBILIDAD DE GANAR INCREIBLES PREMIOS EN RALLY KARTING!!! \nTODAS NUESTRAS SEDES ESPERAN TU RESPUESTA!!!","media":{"image":{"height":285,"src":"https:\/\/scontent.xx.fbcdn.net\/v\/t31.0-8\/s720x720\/16991554_732788380179736_5280774968709487983_o.jpg?oh=fd3b50a50a4d49d92d48a9631f87b1fc&oe=5931B02F","width":720}},"target":{"id":"732788380179736","url":"https:\/\/www.facebook.com\/499708476821062\/photos\/a.499708516821058.1073741826.499708476821062\/732788380179736\/?type=3"},"title":"Timeline Photos","type":"photo","url":"https:\/\/www.facebook.com\/499708476821062\/photos\/a.499708516821058.1073741826.499708476821062\/732788380179736\/?type=3"}]}},{"name":"Timeline Photos","object_id":"732329553558952","message":"SIGUE LA DIVERSION EN TODAS NUESTRAS SEDES !!!\nDURANTE TODO MARZO...DE LUNES A JUEVES...DE APERTURA A LAS 14 HRS..CORRE CON 20 \u0025 EXTRA DE VUELTAS !!!\nVEN JUNTO A TUS AMIGOS Y DISFRUTA DE RALLY KARTING CON UN EXTRA DE EMOCION...UN EXTRA DE ADRENALINA...Y EXTRA VUELTAS PARA QUE VIVAS MARZO A FONDO !!!!\n\n***promocion valida en todas nuestras sedes , no acumulable con otras y en los horarios indicados, para validarla presenta esta publicacion en cualquiera de nuestras boleterias ***","type":"photo","link":"https:\/\/www.facebook.com\/499708476821062\/photos\/a.499708516821058.1073741826.499708476821062\/732329553558952\/?type=3","id":"499708476821062_732329553558952","created_time":"2017-03-01T22:31:33+0000","full_picture":"https:\/\/scontent.xx.fbcdn.net\/v\/t1.0-9\/s720x720\/17021773_732329553558952_6162067846485402936_n.jpg?oh=6567055bbc3f8d42f3a2c5657d40f567&oe=5939A74E","picture":"https:\/\/scontent.xx.fbcdn.net\/v\/t1.0-0\/s130x130\/17021773_732329553558952_6162067846485402936_n.jpg?oh=d26f90fdc3097cadaa66e41df8e10c0b&oe=59263EB1","status_type":"added_photos","likes":{"data":[{"id":"305276929906374","name":"Sebastian Alejandro Gormaz Correa"}],"paging":{"cursors":{"before":"MzA1Mjc2OTI5OTA2Mzc0","after":"MzA1Mjc2OTI5OTA2Mzc0"},"next":"https:\/\/graph.facebook.com\/v2.6\/499708476821062_732329553558952\/likes?access_token=1403531783287112\u00257Caefc31dedc867adfcb816e3b8991d1dd&summary=true&limit=1&after=MzA1Mjc2OTI5OTA2Mzc0"},"summary":{"total_count":126,"can_like":false,"has_liked":false}},"attachments":{"data":[{"description":"SIGUE LA DIVERSION EN TODAS NUESTRAS SEDES !!!\nDURANTE TODO MARZO...DE LUNES A JUEVES...DE APERTURA A LAS 14 HRS..CORRE CON 20 \u0025 EXTRA DE VUELTAS !!!\nVEN JUNTO A TUS AMIGOS Y DISFRUTA DE RALLY KARTING CON UN EXTRA DE EMOCION...UN EXTRA DE ADRENALINA...Y EXTRA VUELTAS PARA QUE VIVAS MARZO A FONDO !!!!\n\n***promocion valida en todas nuestras sedes , no acumulable con otras y en los horarios indicados, para validarla presenta esta publicacion en cualquiera de nuestras boleterias ***","media":{"image":{"height":720,"src":"https:\/\/scontent.xx.fbcdn.net\/v\/t1.0-9\/s720x720\/17021773_732329553558952_6162067846485402936_n.jpg?oh=6567055bbc3f8d42f3a2c5657d40f567&oe=5939A74E","width":475}},"target":{"id":"732329553558952","url":"https:\/\/www.facebook.com\/499708476821062\/photos\/a.499708516821058.1073741826.499708476821062\/732329553558952\/?type=3"},"title":"Timeline Photos","type":"photo","url":"https:\/\/www.facebook.com\/499708476821062\/photos\/a.499708516821058.1073741826.499708476821062\/732329553558952\/?type=3"}]}},{"name":"Rally Karting Chile's cover photo","object_id":"732031916922049","type":"photo","link":"https:\/\/www.facebook.com\/499708476821062\/photos\/a.499708520154391.1073741827.499708476821062\/732031916922049\/?type=3","id":"499708476821062_732031916922049","created_time":"2017-03-01T13:25:50+0000","full_picture":"https:\/\/scontent.xx.fbcdn.net\/v\/t1.0-9\/s720x720\/16997745_732031916922049_1523342413662038082_n.jpg?oh=3188ee94eaa5c14a6c56eaed8ccc0f70&oe=59330A6E","picture":"https:\/\/scontent.xx.fbcdn.net\/v\/t1.0-0\/s130x130\/16997745_732031916922049_1523342413662038082_n.jpg?oh=4997b9a64924b3e3c914c5d69dd04e58&oe=59397091","status_type":"added_photos","story":"Rally Karting Chile updated their cover photo.","likes":{"data":[{"id":"275942672746247","name":"Jose Luis Prado"}],"paging":{"cursors":{"before":"Mjc1OTQyNjcyNzQ2MjQ3","after":"Mjc1OTQyNjcyNzQ2MjQ3"}},"summary":{"total_count":1,"can_like":false,"has_liked":false}},"attachments":{"data":[{"media":{"image":{"height":274,"src":"https:\/\/scontent.xx.fbcdn.net\/v\/t1.0-9\/s720x720\/16997745_732031916922049_1523342413662038082_n.jpg?oh=3188ee94eaa5c14a6c56eaed8ccc0f70&oe=59330A6E","width":720}},"target":{"id":"499708476821062","url":"https:\/\/www.facebook.com\/Rally-Karting-Chile-499708476821062\/"},"title":"Rally Karting Chile's cover photo","type":"cover_photo","url":"https:\/\/www.facebook.com\/Rally-Karting-Chile-499708476821062\/"}]}}],"paging":{"previous":"https:\/\/graph.facebook.com\/v2.6\/499708476821062\/posts?limit=4&fields=name,object_id,description,message,type,link,caption,id,created_time,full_picture,source,picture,status_type,story,attachments,likes.limit\u0025281\u002529.summary\u002528true\u002529&since=1488723186&access_token=1403531783287112|aefc31dedc867adfcb816e3b8991d1dd&__paging_token=enc_AdA1MJi2K1lNPXVhfYDxAi0yNwUisCUkRH66B7KQq8w4PVDVFM0WOu1UEawmV3eJ7mFDZChWMqt14EHyqZC4TXnY7u5o6j52vl6m33O1J3jXufVAZDZD&__previous=1","next":"https:\/\/graph.facebook.com\/v2.6\/499708476821062\/posts?limit=4&fields=name,object_id,description,message,type,link,caption,id,created_time,full_picture,source,picture,status_type,story,attachments,likes.limit\u0025281\u002529.summary\u002528true\u002529&access_token=1403531783287112|aefc31dedc867adfcb816e3b8991d1dd&until=1488374750&__paging_token=enc_AdADbdZClQoPN4MZCweFipZCVtpH4gxbaZAnJz0yCZCA39kchN5ejDgeqdyUiDBv3kzE3UXed3BcUCCnNcc0cVhCGBflgRjWmth7ZBmlCp1MuHRvjiGwZDZD"}},"id":"499708476821062"}